{
  "runtimeTarget": {
    "name": ".NETCoreApp,Version=v2.2/linux-x64",
    "signature": "15a2b72fc5c4bd6b88956d2d41273561666aff4f"
  },
  "compilationOptions": {},
  "targets": {
    ".NETCoreApp,Version=v2.2": {},
    ".NETCoreApp,Version=v2.2/linux-x64": {
      "AsterNetApptechka/1.0.0": {
        "dependencies": {
          "AsterNET.NetStandard": "2.2.0",
          "Microsoft.Extensions.Hosting": "3.1.0",
          "Microsoft.Extensions.Logging": "3.1.0",
          "Newtonsoft.Json": "12.0.3",
          "Serilog.Extensions.Hosting": "3.0.0",
          "Serilog.Sinks.RollingFile.Extension": "2.0.2",
          "Topshelf": "4.2.1"
        },
        "runtime": {
          "AsterNetApptechka.dll": {}
        }
      },
      "AsterNET.NetStandard/2.2.0": {
        "runtime": {
          "lib/netstandard2.0/AsterNET.NetStandard.dll": {
            "assemblyVersion": "2.2.0.0",
            "fileVersion": "2.2.0.0"
          }
        }
      },
      "Microsoft.Bcl.AsyncInterfaces/1.1.0": {
        "runtime": {
          "lib/netstandard2.0/Microsoft.Bcl.AsyncInterfaces.dll": {
            "assemblyVersion": "1.0.0.0",
            "fileVersion": "4.700.19.56404"
          }
        }
      },
      "Microsoft.Extensions.Configuration/3.1.0": {
        "dependencies": {
          "Microsoft.Extensions.Configuration.Abstractions": "3.1.0"
        },
        "runtime": {
          "lib/netstandard2.0/Microsoft.Extensions.Configuration.dll": {
            "assemblyVersion": "3.1.0.0",
            "fileVersion": "3.100.19.56504"
          }
        }
      },
      "Microsoft.Extensions.Configuration.Abstractions/3.1.0": {
        "dependencies": {
          "Microsoft.Extensions.Primitives": "3.1.0"
        },
        "runtime": {
          "lib/netstandard2.0/Microsoft.Extensions.Configuration.Abstractions.dll": {
            "assemblyVersion": "3.1.0.0",
            "fileVersion": "3.100.19.56504"
          }
        }
      },
      "Microsoft.Extensions.Configuration.Binder/3.1.0": {
        "dependencies": {
          "Microsoft.Extensions.Configuration": "3.1.0"
        },
        "runtime": {
          "lib/netstandard2.0/Microsoft.Extensions.Configuration.Binder.dll": {
            "assemblyVersion": "3.1.0.0",
            "fileVersion": "3.100.19.56504"
          }
        }
      },
      "Microsoft.Extensions.Configuration.CommandLine/3.1.0": {
        "dependencies": {
          "Microsoft.Extensions.Configuration": "3.1.0"
        },
        "runtime": {
          "lib/netstandard2.0/Microsoft.Extensions.Configuration.CommandLine.dll": {
            "assemblyVersion": "3.1.0.0",
            "fileVersion": "3.100.19.56504"
          }
        }
      },
      "Microsoft.Extensions.Configuration.EnvironmentVariables/3.1.0": {
        "dependencies": {
          "Microsoft.Extensions.Configuration": "3.1.0"
        },
        "runtime": {
          "lib/netstandard2.0/Microsoft.Extensions.Configuration.EnvironmentVariables.dll": {
            "assemblyVersion": "3.1.0.0",
            "fileVersion": "3.100.19.56504"
          }
        }
      },
      "Microsoft.Extensions.Configuration.FileExtensions/3.1.0": {
        "dependencies": {
          "Microsoft.Extensions.Configuration": "3.1.0",
          "Microsoft.Extensions.FileProviders.Physical": "3.1.0"
        },
        "runtime": {
          "lib/netstandard2.0/Microsoft.Extensions.Configuration.FileExtensions.dll": {
            "assemblyVersion": "3.1.0.0",
            "fileVersion": "3.100.19.56504"
          }
        }
      },
      "Microsoft.Extensions.Configuration.Json/3.1.0": {
        "dependencies": {
          "Microsoft.Extensions.Configuration": "3.1.0",
          "Microsoft.Extensions.Configuration.FileExtensions": "3.1.0",
          "System.Text.Json": "4.7.0",
          "System.Threading.Tasks.Extensions": "4.5.2"
        },
        "runtime": {
          "lib/netstandard2.0/Microsoft.Extensions.Configuration.Json.dll": {
            "assemblyVersion": "3.1.0.0",
            "fileVersion": "3.100.19.56504"
          }
        }
      },
      "Microsoft.Extensions.Configuration.UserSecrets/3.1.0": {
        "dependencies": {
          "Microsoft.Extensions.Configuration.Json": "3.1.0"
        },
        "runtime": {
          "lib/netstandard2.0/Microsoft.Extensions.Configuration.UserSecrets.dll": {
            "assemblyVersion": "3.1.0.0",
            "fileVersion": "3.100.19.56504"
          }
        }
      },
      "Microsoft.Extensions.DependencyInjection/3.1.0": {
        "dependencies": {
          "Microsoft.Bcl.AsyncInterfaces": "1.1.0",
          "Microsoft.Extensions.DependencyInjection.Abstractions": "3.1.0"
        },
        "runtime": {
          "lib/netstandard2.0/Microsoft.Extensions.DependencyInjection.dll": {
            "assemblyVersion": "3.1.0.0",
            "fileVersion": "3.100.19.56504"
          }
        }
      },
      "Microsoft.Extensions.DependencyInjection.Abstractions/3.1.0": {
        "runtime": {
          "lib/netstandard2.0/Microsoft.Extensions.DependencyInjection.Abstractions.dll": {
            "assemblyVersion": "3.1.0.0",
            "fileVersion": "3.100.19.56504"
          }
        }
      },
      "Microsoft.Extensions.FileProviders.Abstractions/3.1.0": {
        "dependencies": {
          "Microsoft.Extensions.Primitives": "3.1.0"
        },
        "runtime": {
          "lib/netstandard2.0/Microsoft.Extensions.FileProviders.Abstractions.dll": {
            "assemblyVersion": "3.1.0.0",
            "fileVersion": "3.100.19.56504"
          }
        }
      },
      "Microsoft.Extensions.FileProviders.Physical/3.1.0": {
        "dependencies": {
          "Microsoft.Extensions.FileProviders.Abstractions": "3.1.0",
          "Microsoft.Extensions.FileSystemGlobbing": "3.1.0"
        },
        "runtime": {
          "lib/netstandard2.0/Microsoft.Extensions.FileProviders.Physical.dll": {
            "assemblyVersion": "3.1.0.0",
            "fileVersion": "3.100.19.56504"
          }
        }
      },
      "Microsoft.Extensions.FileSystemGlobbing/3.1.0": {
        "runtime": {
          "lib/netstandard2.0/Microsoft.Extensions.FileSystemGlobbing.dll": {
            "assemblyVersion": "3.1.0.0",
            "fileVersion": "3.100.19.56504"
          }
        }
      },
      "Microsoft.Extensions.Hosting/3.1.0": {
        "dependencies": {
          "Microsoft.Bcl.AsyncInterfaces": "1.1.0",
          "Microsoft.Extensions.Configuration": "3.1.0",
          "Microsoft.Extensions.Configuration.CommandLine": "3.1.0",
          "Microsoft.Extensions.Configuration.EnvironmentVariables": "3.1.0",
          "Microsoft.Extensions.Configuration.UserSecrets": "3.1.0",
          "Microsoft.Extensions.DependencyInjection": "3.1.0",
          "Microsoft.Extensions.FileProviders.Physical": "3.1.0",
          "Microsoft.Extensions.Hosting.Abstractions": "3.1.0",
          "Microsoft.Extensions.Logging": "3.1.0",
          "Microsoft.Extensions.Logging.Console": "3.1.0",
          "Microsoft.Extensions.Logging.Debug": "3.1.0",
          "Microsoft.Extensions.Logging.EventLog": "3.1.0",
          "Microsoft.Extensions.Logging.EventSource": "3.1.0"
        },
        "runtime": {
          "lib/netstandard2.0/Microsoft.Extensions.Hosting.dll": {
            "assemblyVersion": "3.1.0.0",
            "fileVersion": "3.100.19.56504"
          }
        }
      },
      "Microsoft.Extensions.Hosting.Abstractions/3.1.0": {
        "dependencies": {
          "Microsoft.Bcl.AsyncInterfaces": "1.1.0",
          "Microsoft.Extensions.Configuration.Abstractions": "3.1.0",
          "Microsoft.Extensions.DependencyInjection.Abstractions": "3.1.0",
          "Microsoft.Extensions.FileProviders.Abstractions": "3.1.0",
          "Microsoft.Extensions.Logging.Abstractions": "3.1.0"
        },
        "runtime": {
          "lib/netstandard2.0/Microsoft.Extensions.Hosting.Abstractions.dll": {
            "assemblyVersion": "3.1.0.0",
            "fileVersion": "3.100.19.56504"
          }
        }
      },
      "Microsoft.Extensions.Logging/3.1.0": {
        "dependencies": {
          "Microsoft.Extensions.Configuration.Binder": "3.1.0",
          "Microsoft.Extensions.DependencyInjection": "3.1.0",
          "Microsoft.Extensions.Logging.Abstractions": "3.1.0",
          "Microsoft.Extensions.Options": "3.1.0"
        },
        "runtime": {
          "lib/netstandard2.0/Microsoft.Extensions.Logging.dll": {
            "assemblyVersion": "3.1.0.0",
            "fileVersion": "3.100.19.56504"
          }
        }
      },
      "Microsoft.Extensions.Logging.Abstractions/3.1.0": {
        "runtime": {
          "lib/netstandard2.0/Microsoft.Extensions.Logging.Abstractions.dll": {
            "assemblyVersion": "3.1.0.0",
            "fileVersion": "3.100.19.56504"
          }
        }
      },
      "Microsoft.Extensions.Logging.Configuration/3.1.0": {
        "dependencies": {
          "Microsoft.Extensions.Logging": "3.1.0",
          "Microsoft.Extensions.Options.ConfigurationExtensions": "3.1.0"
        },
        "runtime": {
          "lib/netstandard2.0/Microsoft.Extensions.Logging.Configuration.dll": {
            "assemblyVersion": "3.1.0.0",
            "fileVersion": "3.100.19.56504"
          }
        }
      },
      "Microsoft.Extensions.Logging.Console/3.1.0": {
        "dependencies": {
          "Microsoft.Extensions.Configuration.Abstractions": "3.1.0",
          "Microsoft.Extensions.Logging": "3.1.0",
          "Microsoft.Extensions.Logging.Configuration": "3.1.0"
        },
        "runtime": {
          "lib/netstandard2.0/Microsoft.Extensions.Logging.Console.dll": {
            "assemblyVersion": "3.1.0.0",
            "fileVersion": "3.100.19.56504"
          }
        }
      },
      "Microsoft.Extensions.Logging.Debug/3.1.0": {
        "dependencies": {
          "Microsoft.Extensions.Logging": "3.1.0"
        },
        "runtime": {
          "lib/netstandard2.0/Microsoft.Extensions.Logging.Debug.dll": {
            "assemblyVersion": "3.1.0.0",
            "fileVersion": "3.100.19.56504"
          }
        }
      },
      "Microsoft.Extensions.Logging.EventLog/3.1.0": {
        "dependencies": {
          "Microsoft.Extensions.Logging": "3.1.0",
          "System.Diagnostics.EventLog": "4.7.0"
        },
        "runtime": {
          "lib/netstandard2.0/Microsoft.Extensions.Logging.EventLog.dll": {
            "assemblyVersion": "3.1.0.0",
            "fileVersion": "3.100.19.56504"
          }
        }
      },
      "Microsoft.Extensions.Logging.EventSource/3.1.0": {
        "dependencies": {
          "Microsoft.Extensions.Logging": "3.1.0",
          "System.Text.Json": "4.7.0",
          "System.Threading.Tasks.Extensions": "4.5.2"
        },
        "runtime": {
          "lib/netstandard2.0/Microsoft.Extensions.Logging.EventSource.dll": {
            "assemblyVersion": "3.1.0.0",
            "fileVersion": "3.100.19.56504"
          }
        }
      },
      "Microsoft.Extensions.Options/3.1.0": {
        "dependencies": {
          "Microsoft.Extensions.DependencyInjection.Abstractions": "3.1.0",
          "Microsoft.Extensions.Primitives": "3.1.0",
          "System.ComponentModel.Annotations": "4.7.0"
        },
        "runtime": {
          "lib/netstandard2.0/Microsoft.Extensions.Options.dll": {
            "assemblyVersion": "3.1.0.0",
            "fileVersion": "3.100.19.56504"
          }
        }
      },
      "Microsoft.Extensions.Options.ConfigurationExtensions/3.1.0": {
        "dependencies": {
          "Microsoft.Extensions.Configuration.Abstractions": "3.1.0",
          "Microsoft.Extensions.Configuration.Binder": "3.1.0",
          "Microsoft.Extensions.DependencyInjection.Abstractions": "3.1.0",
          "Microsoft.Extensions.Options": "3.1.0"
        },
        "runtime": {
          "lib/netstandard2.0/Microsoft.Extensions.Options.ConfigurationExtensions.dll": {
            "assemblyVersion": "3.1.0.0",
            "fileVersion": "3.100.19.56504"
          }
        }
      },
      "Microsoft.Extensions.Primitives/3.1.0": {
        "dependencies": {
          "System.Memory": "4.5.2",
          "System.Runtime.CompilerServices.Unsafe": "4.7.0"
        },
        "runtime": {
          "lib/netstandard2.0/Microsoft.Extensions.Primitives.dll": {
            "assemblyVersion": "3.1.0.0",
            "fileVersion": "3.100.19.56504"
          }
        }
      },
      "Microsoft.NETCore.Platforms/3.1.0": {},
      "Microsoft.Win32.Registry/4.7.0": {
        "dependencies": {
          "System.Security.AccessControl": "4.7.0",
          "System.Security.Principal.Windows": "4.7.0"
        },
        "runtime": {
          "runtimes/unix/lib/netstandard2.0/Microsoft.Win32.Registry.dll": {
            "assemblyVersion": "4.1.3.0",
            "fileVersion": "4.700.19.56404"
          }
        }
      },
      "Newtonsoft.Json/12.0.3": {
        "runtime": {
          "lib/netstandard2.0/Newtonsoft.Json.dll": {
            "assemblyVersion": "12.0.0.0",
            "fileVersion": "12.0.3.23909"
          }
        }
      },
      "Polly/6.1.0": {
        "runtime": {
          "lib/netstandard2.0/Polly.dll": {
            "assemblyVersion": "6.0.0.0",
            "fileVersion": "6.1.0.0"
          }
        }
      },
      "Serilog/2.8.0": {
        "dependencies": {
          "System.Collections.NonGeneric": "4.3.0"
        },
        "runtime": {
          "lib/netstandard2.0/Serilog.dll": {
            "assemblyVersion": "2.0.0.0",
            "fileVersion": "2.8.0.0"
          }
        }
      },
      "Serilog.Extensions.Hosting/3.0.0": {
        "dependencies": {
          "Microsoft.Extensions.DependencyInjection.Abstractions": "3.1.0",
          "Microsoft.Extensions.Hosting.Abstractions": "3.1.0",
          "Microsoft.Extensions.Logging.Abstractions": "3.1.0",
          "Serilog": "2.8.0",
          "Serilog.Extensions.Logging": "3.0.1"
        },
        "runtime": {
          "lib/netstandard2.0/Serilog.Extensions.Hosting.dll": {
            "assemblyVersion": "2.0.0.0",
            "fileVersion": "3.0.0.0"
          }
        }
      },
      "Serilog.Extensions.Logging/3.0.1": {
        "dependencies": {
          "Microsoft.Extensions.Logging": "3.1.0",
          "Serilog": "2.8.0"
        },
        "runtime": {
          "lib/netstandard2.0/Serilog.Extensions.Logging.dll": {
            "assemblyVersion": "2.0.0.0",
            "fileVersion": "3.0.1.0"
          }
        }
      },
      "Serilog.Sinks.RollingFile.Extension/2.0.2": {
        "dependencies": {
          "Polly": "6.1.0",
          "Serilog": "2.8.0"
        },
        "runtime": {
          "lib/netstandard2.0/Serilog.Sinks.RollingFile.Extension.dll": {
            "assemblyVersion": "2.0.2.0",
            "fileVersion": "2.0.2.0"
          }
        }
      },
      "System.Collections.NonGeneric/4.3.0": {
        "dependencies": {
          "System.Diagnostics.Debug": "4.3.0",
          "System.Globalization": "4.3.0",
          "System.Resources.ResourceManager": "4.3.0",
          "System.Runtime": "4.3.0",
          "System.Runtime.Extensions": "4.3.0",
          "System.Threading": "4.3.0"
        }
      },
      "System.ComponentModel.Annotations/4.7.0": {},
      "System.Diagnostics.Debug/4.3.0": {
        "dependencies": {
          "Microsoft.NETCore.Platforms": "3.1.0",
          "System.Runtime": "4.3.0"
        }
      },
      "System.Diagnostics.EventLog/4.7.0": {
        "dependencies": {
          "Microsoft.NETCore.Platforms": "3.1.0",
          "Microsoft.Win32.Registry": "4.7.0",
          "System.Security.Principal.Windows": "4.7.0"
        },
        "runtime": {
          "lib/netstandard2.0/System.Diagnostics.EventLog.dll": {
            "assemblyVersion": "4.0.2.0",
            "fileVersion": "4.700.19.56404"
          }
        }
      },
      "System.Globalization/4.3.0": {
        "dependencies": {
          "Microsoft.NETCore.Platforms": "3.1.0",
          "System.Runtime": "4.3.0"
        }
      },
      "System.IO/4.3.0": {
        "dependencies": {
          "Microsoft.NETCore.Platforms": "3.1.0",
          "System.Runtime": "4.3.0",
          "System.Text.Encoding": "4.3.0",
          "System.Threading.Tasks": "4.3.0"
        }
      },
      "System.Memory/4.5.2": {},
      "System.Reflection/4.3.0": {
        "dependencies": {
          "Microsoft.NETCore.Platforms": "3.1.0",
          "System.IO": "4.3.0",
          "System.Reflection.Primitives": "4.3.0",
          "System.Runtime": "4.3.0"
        }
      },
      "System.Reflection.Primitives/4.3.0": {
        "dependencies": {
          "Microsoft.NETCore.Platforms": "3.1.0",
          "System.Runtime": "4.3.0"
        }
      },
      "System.Resources.ResourceManager/4.3.0": {
        "dependencies": {
          "Microsoft.NETCore.Platforms": "3.1.0",
          "System.Globalization": "4.3.0",
          "System.Reflection": "4.3.0",
          "System.Runtime": "4.3.0"
        }
      },
      "System.Runtime/4.3.0": {
        "dependencies": {
          "Microsoft.NETCore.Platforms": "3.1.0"
        }
      },
      "System.Runtime.CompilerServices.Unsafe/4.7.0": {
        "runtime": {
          "lib/netcoreapp2.0/System.Runtime.CompilerServices.Unsafe.dll": {
            "assemblyVersion": "4.0.6.0",
            "fileVersion": "4.700.19.56404"
          }
        }
      },
      "System.Runtime.Extensions/4.3.0": {
        "dependencies": {
          "Microsoft.NETCore.Platforms": "3.1.0",
          "System.Runtime": "4.3.0"
        }
      },
      "System.Security.AccessControl/4.7.0": {
        "dependencies": {
          "Microsoft.NETCore.Platforms": "3.1.0",
          "System.Security.Principal.Windows": "4.7.0"
        },
        "runtime": {
          "lib/netstandard2.0/System.Security.AccessControl.dll": {
            "assemblyVersion": "4.1.3.0",
            "fileVersion": "4.700.19.56404"
          }
        }
      },
      "System.Security.Principal.Windows/4.7.0": {
        "dependencies": {
          "Microsoft.NETCore.Platforms": "3.1.0"
        },
        "runtime": {
          "runtimes/unix/lib/netcoreapp2.1/System.Security.Principal.Windows.dll": {
            "assemblyVersion": "4.1.3.0",
            "fileVersion": "4.700.19.56404"
          }
        }
      },
      "System.ServiceProcess.ServiceController/4.5.0": {
        "dependencies": {
          "System.Diagnostics.EventLog": "4.7.0"
        },
        "runtime": {
          "lib/netstandard2.0/System.ServiceProcess.ServiceController.dll": {
            "assemblyVersion": "4.2.1.0",
            "fileVersion": "4.6.26515.6"
          }
        }
      },
      "System.Text.Encoding/4.3.0": {
        "dependencies": {
          "Microsoft.NETCore.Platforms": "3.1.0",
          "System.Runtime": "4.3.0"
        }
      },
      "System.Text.Encodings.Web/4.7.0": {
        "runtime": {
          "lib/netstandard2.0/System.Text.Encodings.Web.dll": {
            "assemblyVersion": "4.0.5.0",
            "fileVersion": "4.700.19.56404"
          }
        }
      },
      "System.Text.Json/4.7.0": {
        "dependencies": {
          "Microsoft.Bcl.AsyncInterfaces": "1.1.0",
          "System.Runtime.CompilerServices.Unsafe": "4.7.0",
          "System.Text.Encodings.Web": "4.7.0"
        },
        "runtime": {
          "lib/netstandard2.0/System.Text.Json.dll": {
            "assemblyVersion": "4.0.1.0",
            "fileVersion": "4.700.19.56404"
          }
        }
      },
      "System.Threading/4.3.0": {
        "dependencies": {
          "System.Runtime": "4.3.0",
          "System.Threading.Tasks": "4.3.0"
        }
      },
      "System.Threading.Tasks/4.3.0": {
        "dependencies": {
          "Microsoft.NETCore.Platforms": "3.1.0",
          "System.Runtime": "4.3.0"
        }
      },
      "System.Threading.Tasks.Extensions/4.5.2": {},
      "Topshelf/4.2.1": {
        "dependencies": {
          "TopShelf.ServiceInstaller": "4.2.1"
        },
        "runtime": {
          "lib/netstandard2.0/Topshelf.dll": {
            "assemblyVersion": "4.2.1.215",
            "fileVersion": "4.2.1.215"
          }
        }
      },
      "TopShelf.ServiceInstaller/4.2.1": {
        "dependencies": {
          "Microsoft.Win32.Registry": "4.7.0",
          "System.ServiceProcess.ServiceController": "4.5.0"
        },
        "runtime": {
          "lib/netstandard2.0/TopShelf.ServiceInstaller.dll": {
            "assemblyVersion": "4.2.1.215",
            "fileVersion": "4.2.1.215"
          }
        }
      }
    }
  },
  "libraries": {
    "AsterNetApptechka/1.0.0": {
      "type": "project",
      "serviceable": false,
      "sha512": ""
    },
    "AsterNET.NetStandard/2.2.0": {
      "type": "package",
      "serviceable": true,
      "sha512": "sha512-QkGLRM/r9hgNLMqg5NX16nqn2VQps6e79Cz5OkaTasTn1KdbTPoJcwjbHOgYkUVIAd2BJwiDVs7TXJWt9tL07Q==",
      "path": "asternet.netstandard/2.2.0",
      "hashPath": "asternet.netstandard.2.2.0.nupkg.sha512"
    },
    "Microsoft.Bcl.AsyncInterfaces/1.1.0": {
      "type": "package",
      "serviceable": true,
      "sha512": "sha512-1Am6l4Vpn3/K32daEqZI+FFr96OlZkgwK2LcT3pZ2zWubR5zTPW3/FkO1Rat9kb7oQOa4rxgl9LJHc5tspCWfg==",
      "path": "microsoft.bcl.asyncinterfaces/1.1.0",
      "hashPath": "microsoft.bcl.asyncinterfaces.1.1.0.nupkg.sha512"
    },
    "Microsoft.Extensions.Configuration/3.1.0": {
      "type": "package",
      "serviceable": true,
      "sha512": "sha512-Lu41BWNmwhKr6LgyQvcYBOge0pPvmiaK8R5UHXX4//wBhonJyWcT2OK1mqYfEM5G7pTf31fPrpIHOT6sN7EGOA==",
      "path": "microsoft.extensions.configuration/3.1.0",
      "hashPath": "microsoft.extensions.configuration.3.1.0.nupkg.sha512"
    },
    "Microsoft.Extensions.Configuration.Abstractions/3.1.0": {
      "type": "package",
      "serviceable": true,
      "sha512": "sha512-ESz6bVoDQX7sgWdKHF6G9Pq672T8k+19AFb/txDXwdz7MoqaNQj2/in3agm/3qae9V+WvQZH86LLTNVo0it8vQ==",
      "path": "microsoft.extensions.configuration.abstractions/3.1.0",
      "hashPath": "microsoft.extensions.configuration.abstractions.3.1.0.nupkg.sha512"
    },
    "Microsoft.Extensions.Configuration.Binder/3.1.0": {
      "type": "package",
      "serviceable": true,
      "sha512": "sha512-o9eELDBfNkR7sUtYysFZ1Q7BQ1mYt27DMkups/3vu7xgPyOpMD+iAfrBZFzUXT2iw0fmFb8s1gfNBZS+IgjKdQ==",
      "path": "microsoft.extensions.configuration.binder/3.1.0",
      "hashPath": "microsoft.extensions.configuration.binder.3.1.0.nupkg.sha512"
    },
    "Microsoft.Extensions.Configuration.CommandLine/3.1.0": {
      "type": "package",
      "serviceable": true,
      "sha512": "sha512-KDjz4HBw549oW4Y1eQAImAugCSYn84KXwgGZtgMqEwctvkdxZo0ObZC5QQI/YvX21U+DArR9+NfWZ3MxD9MhPA==",
      "path": "microsoft.extensions.configuration.commandline/3.1.0",
      "hashPath": "microsoft.extensions.configuration.commandline.3.1.0.nupkg.sha512"
    },
    "Microsoft.Extensions.Configuration.EnvironmentVariables/3.1.0": {
      "type": "package",
      "serviceable": true,
      "sha512": "sha512-WryksPlAFFRMWIGpFwDDbrVSD/kSO7P7fRRzBHh6vEIrgflsM8tpPCcgIvKszH4fz4vcuapih9RMdiiJ2VS7aw==",
      "path": "microsoft.extensions.configuration.environmentvariables/3.1.0",
      "hashPath": "microsoft.extensions.configuration.environmentvariables.3.1.0.nupkg.sha512"
    },
    "Microsoft.Extensions.Configuration.FileExtensions/3.1.0": {
      "type": "package",
      "serviceable": true,
      "sha512": "sha512-OjRJIkVxUFiVkr9a39AqVThft9QHoef4But5pDCydJOXJ4D/SkmzuW1tm6J2IXynxj6qfeAz9QTnzQAvOcGvzg==",
      "path": "microsoft.extensions.configuration.fileextensions/3.1.0",
      "hashPath": "microsoft.extensions.configuration.fileextensions.3.1.0.nupkg.sha512"
    },
    "Microsoft.Extensions.Configuration.Json/3.1.0": {
      "type": "package",
      "serviceable": true,
      "sha512": "sha512-gBpBE1GoaCf1PKYC7u0Bd4mVZ/eR2bnOvn7u8GBXEy3JGar6sC3UVpVfTB9w+biLPtzcukZynBG9uchSBbLTNQ==",
      "path": "microsoft.extensions.configuration.json/3.1.0",
      "hashPath": "microsoft.extensions.configuration.json.3.1.0.nupkg.sha512"
    },
    "Microsoft.Extensions.Configuration.UserSecrets/3.1.0": {
      "type": "package",
      "serviceable": true,
      "sha512": "sha512-ZS71TEcxggal3Koh2qHo6s7aNLhwpW2veNCKaxB6nPJabdZBU/sExhszd6JjuCeYMFxDHL1ygJ/N+ghKSrFNDQ==",
      "path": "microsoft.extensions.configuration.usersecrets/3.1.0",
      "hashPath": "microsoft.extensions.configuration.usersecrets.3.1.0.nupkg.sha512"
    },
    "Microsoft.Extensions.DependencyInjection/3.1.0": {
      "type": "package",
      "serviceable": true,
      "sha512": "sha512-KVkv3aF2MQpmGFRh4xRx2CNbc2sjDFk+lH4ySrjWSOS+XoY1Xc+sJphw3N0iYOpoeCCq8976ceVYDH8sdx2qIQ==",
      "path": "microsoft.extensions.dependencyinjection/3.1.0",
      "hashPath": "microsoft.extensions.dependencyinjection.3.1.0.nupkg.sha512"
    },
    "Microsoft.Extensions.DependencyInjection.Abstractions/3.1.0": {
      "type": "package",
      "serviceable": true,
      "sha512": "sha512-44rDtOf1JXXAFpNT2EXMExaDm/4OJ2RXOL9i9lE4bK427nzC7Exphv+beB6IgluyE2GIoo8zezTStMXI7MQ8WA==",
      "path": "microsoft.extensions.dependencyinjection.abstractions/3.1.0",
      "hashPath": "microsoft.extensions.dependencyinjection.abstractions.3.1.0.nupkg.sha512"
    },
    "Microsoft.Extensions.FileProviders.Abstractions/3.1.0": {
      "type": "package",
      "serviceable": true,
      "sha512": "sha512-G3iBMOnn3tETEUvkE9J3a23wQpRkiXZp73zR0XNlicjLFhkeWW1FCaC2bTjrgHhPi2KO6x0BXnHvVuJPIlygBQ==",
      "path": "microsoft.extensions.fileproviders.abstractions/3.1.0",
      "hashPath": "microsoft.extensions.fileproviders.abstractions.3.1.0.nupkg.sha512"
    },
    "Microsoft.Extensions.FileProviders.Physical/3.1.0": {
      "type": "package",
      "serviceable": true,
      "sha512": "sha512-KsvgrYp2fhNXoD9gqSu8jPK9Sbvaa7SqNtsLqHugJkCwFmgRvdz76z6Jz2tlFlC7wyMTZxwwtRF8WAorRQWTEA==",
      "path": "microsoft.extensions.fileproviders.physical/3.1.0",
      "hashPath": "microsoft.extensions.fileproviders.physical.3.1.0.nupkg.sha512"
    },
    "Microsoft.Extensions.FileSystemGlobbing/3.1.0": {
      "type": "package",
      "serviceable": true,
      "sha512": "sha512-tK5HZOmVv0kUYkonMjuSsxR0CBk+Rd/69QU3eOMv9FvODGZ2d0SR+7R+n8XIgBcCCoCHJBSsI4GPRaoN3Le4rA==",
      "path": "microsoft.extensions.filesystemglobbing/3.1.0",
      "hashPath": "microsoft.extensions.filesystemglobbing.3.1.0.nupkg.sha512"
    },
    "Microsoft.Extensions.Hosting/3.1.0": {
      "type": "package",
      "serviceable": true,
      "sha512": "sha512-oM5Zd2eI8tbY+5hR/ZusdS/mcYb25XVLMEohl6rZv8NcfeSEqlZG5YVo81DQGnWhB1OB2nHMVgXj6RN3tEqAqQ==",
      "path": "microsoft.extensions.hosting/3.1.0",
      "hashPath": "microsoft.extensions.hosting.3.1.0.nupkg.sha512"
    },
    "Microsoft.Extensions.Hosting.Abstractions/3.1.0": {
      "type": "package",
      "serviceable": true,
      "sha512": "sha512-LiOP1ceFaPBxaE28SOjtORzOVCJk33TT5VQ/Cg5EoatZh1dxpPAgAV/0ruzWKQE7WAHU3F1H9Z6rFgsQwIb9uQ==",
      "path": "microsoft.extensions.hosting.abstractions/3.1.0",
      "hashPath": "microsoft.extensions.hosting.abstractions.3.1.0.nupkg.sha512"
    },
    "Microsoft.Extensions.Logging/3.1.0": {
      "type": "package",
      "serviceable": true,
      "sha512": "sha512-P+8sKQ8L4ooL79sxxqwFPxGGC3aBrUDLB/dZqhs4J0XjTyrkeeyJQ4D4nzJB6OnAhy78HIIgQ/RbD6upOXLynw==",
      "path": "microsoft.extensions.logging/3.1.0",
      "hashPath": "microsoft.extensions.logging.3.1.0.nupkg.sha512"
    },
    "Microsoft.Extensions.Logging.Abstractions/3.1.0": {
      "type": "package",
      "serviceable": true,
      "sha512": "sha512-jjo4YXRx6MIpv6DiRxJjSpl+sPP0+5VW0clMEdLyIAz44PPwrDTFrd5PZckIxIXl1kKZ2KK6IL2nkt0+ug2MQg==",
      "path": "microsoft.extensions.logging.abstractions/3.1.0",
      "hashPath": "microsoft.extensions.logging.abstractions.3.1.0.nupkg.sha512"
    },
    "Microsoft.Extensions.Logging.Configuration/3.1.0": {
      "type": "package",
      "serviceable": true,
      "sha512": "sha512-yW3nIoNM3T5iZg8bRViiCN4+vIU/02l+mlWSvKqWnr0Fd5Uk1zKdT9jBWKEcJhRIWKVWWSpFWXnM5yWoIAy1Eg==",
      "path": "microsoft.extensions.logging.configuration/3.1.0",
      "hashPath": "microsoft.extensions.logging.configuration.3.1.0.nupkg.sha512"
    },
    "Microsoft.Extensions.Logging.Console/3.1.0": {
      "type": "package",
      "serviceable": true,
      "sha512": "sha512-lkqVlnQqfqr8nmrpy7EnISXy192NEaIb0Xh4zaO8XS/QMiC3RqOAxxeq89JPSmjw+YfecwcikV8UB+NacdgRDg==",
      "path": "microsoft.extensions.logging.console/3.1.0",
      "hashPath": "microsoft.extensions.logging.console.3.1.0.nupkg.sha512"
    },
    "Microsoft.Extensions.Logging.Debug/3.1.0": {
      "type": "package",
      "serviceable": true,
      "sha512": "sha512-pTuUb46wKuZD2nuvzmlHQfbm9sUAiOg1x1pe1fzxDHaocXaZQDjKGYYZifnTLeJk35OSi8ouEIcbuKLVF16yfg==",
      "path": "microsoft.extensions.logging.debug/3.1.0",
      "hashPath": "microsoft.extensions.logging.debug.3.1.0.nupkg.sha512"
    },
    "Microsoft.Extensions.Logging.EventLog/3.1.0": {
      "type": "package",
      "serviceable": true,
      "sha512": "sha512-9m5orA0YkzN6DGZIMqMi0SYel2LPhQitaUSMhA9Rocu6k6ZTYJvhqaRYACC4uhpymPyOf0fQaAGK13sqPWi9MA==",
      "path": "microsoft.extensions.logging.eventlog/3.1.0",
      "hashPath": "microsoft.extensions.logging.eventlog.3.1.0.nupkg.sha512"
    },
    "Microsoft.Extensions.Logging.EventSource/3.1.0": {
      "type": "package",
      "serviceable": true,
      "sha512": "sha512-HT5UXDPIQFBZob4rF/jwErm/tawmThqhyDdlxLv+VFEAdsgq7/XwMqWLlF59aPvK+ypI0sneV2GUlB4KfWPuSA==",
      "path": "microsoft.extensions.logging.eventsource/3.1.0",
      "hashPath": "microsoft.extensions.logging.eventsource.3.1.0.nupkg.sha512"
    },
    "Microsoft.Extensions.Options/3.1.0": {
      "type": "package",
      "serviceable": true,
      "sha512": "sha512-9b6JHY7TAXrSfZ6EEGf+j8XnqKIiMPErfmaNXhJYSCb+BUW2H4RtzkNJvwLJzwgzqBP0wtTjyA6Uw4BPPdmkMw==",
      "path": "microsoft.extensions.options/3.1.0",
      "hashPath": "microsoft.extensions.options.3.1.0.nupkg.sha512"
    },
    "Microsoft.Extensions.Options.ConfigurationExtensions/3.1.0": {
      "type": "package",
      "serviceable": true,
      "sha512": "sha512-tx6gMKE3rDspA1YZT8SlQJmyt1BaBSl6mNjB3g0ZO6m3NnoavCifXkGeBuDk9Ae4XjW8C+dty52p+0u38jPRIQ==",
      "path": "microsoft.extensions.options.configurationextensions/3.1.0",
      "hashPath": "microsoft.extensions.options.configurationextensions.3.1.0.nupkg.sha512"
    },
    "Microsoft.Extensions.Primitives/3.1.0": {
      "type": "package",
      "serviceable": true,
      "sha512": "sha512-LEKAnX7lhUhSoIc2XraCTK3M4IU/LdVUzCe464Sa4+7F4ZJuXHHRzZli2mDbiT4xzAZhgqXbvfnb5+CNDcQFfg==",
      "path": "microsoft.extensions.primitives/3.1.0",
      "hashPath": "microsoft.extensions.primitives.3.1.0.nupkg.sha512"
    },
    "Microsoft.NETCore.Platforms/3.1.0": {
      "type": "package",
      "serviceable": true,
      "sha512": "sha512-z7aeg8oHln2CuNulfhiLYxCVMPEwBl3rzicjvIX+4sUuCwvXw5oXQEtbiU2c0z4qYL5L3Kmx0mMA/+t/SbY67w==",
      "path": "microsoft.netcore.platforms/3.1.0",
      "hashPath": "microsoft.netcore.platforms.3.1.0.nupkg.sha512"
    },
    "Microsoft.Win32.Registry/4.7.0": {
      "type": "package",
      "serviceable": true,
      "sha512": "sha512-KSrRMb5vNi0CWSGG1++id2ZOs/1QhRqROt+qgbEAdQuGjGrFcl4AOl4/exGPUYz2wUnU42nvJqon1T3U0kPXLA==",
      "path": "microsoft.win32.registry/4.7.0",
      "hashPath": "microsoft.win32.registry.4.7.0.nupkg.sha512"
    },
    "Newtonsoft.Json/12.0.3": {
      "type": "package",
      "serviceable": true,
      "sha512": "sha512-6mgjfnRB4jKMlzHSl+VD+oUc1IebOZabkbyWj2RiTgWwYPPuaK1H97G1sHqGwPlS5npiF5Q0OrxN1wni2n5QWg==",
      "path": "newtonsoft.json/12.0.3",
      "hashPath": "newtonsoft.json.12.0.3.nupkg.sha512"
    },
    "Polly/6.1.0": {
      "type": "package",
      "serviceable": true,
      "sha512": "sha512-qEbkPKwPjV+/Yho5VWRDBnvqeEbfNpLpF7UxNlUploVCorbHTDazCl/aOsJqspH4q6Bskm8jActOavV5//OQRQ==",
      "path": "polly/6.1.0",
      "hashPath": "polly.6.1.0.nupkg.sha512"
    },
    "Serilog/2.8.0": {
      "type": "package",
      "serviceable": true,
      "sha512": "sha512-zjuKXW5IQws43IHX7VY9nURsaCiBYh2kyJCWLJRSWrTsx/syBKHV8MibWe2A+QH3Er0AiwA+OJmO3DhFJDY1+A==",
      "path": "serilog/2.8.0",
      "hashPath": "serilog.2.8.0.nupkg.sha512"
    },
    "Serilog.Extensions.Hosting/3.0.0": {
      "type": "package",
      "serviceable": true,
      "sha512": "sha512-UPo+FA2B7iIuFvABypsxy4Ss1YR9ukCgCivE6faEokN1w0/40Dh0WrVKeVhEM6mG+EAgpPIE8zQo7y7vWXxWng==",
      "path": "serilog.extensions.hosting/3.0.0",
      "hashPath": "serilog.extensions.hosting.3.0.0.nupkg.sha512"
    },
    "Serilog.Extensions.Logging/3.0.1": {
      "type": "package",
      "serviceable": true,
      "sha512": "sha512-U0xbGoZuxJRjE3C5vlCfrf9a4xHTmbrCXKmaA14cHAqiT1Qir0rkV7Xss9GpPJR3MRYH19DFUUqZ9hvWeJrzdQ==",
      "path": "serilog.extensions.logging/3.0.1",
      "hashPath": "serilog.extensions.logging.3.0.1.nupkg.sha512"
    },
    "Serilog.Sinks.RollingFile.Extension/2.0.2": {
      "type": "package",
      "serviceable": true,
      "sha512": "sha512-FjQrh9SVZgzUoMCAJsgnLwGmbaD/Zl+tEzP/mA7ooERgNIt+aBNPvZGdAQLZ9Lx627V/GkA+ZbV9jbj3bFlgGw==",
      "path": "serilog.sinks.rollingfile.extension/2.0.2",
      "hashPath": "serilog.sinks.rollingfile.extension.2.0.2.nupkg.sha512"
    },
    "System.Collections.NonGeneric/4.3.0": {
      "type": "package",
      "serviceable": true,
      "sha512": "sha512-DNyDQBC9jy5BUP/B5sZSKr39HpYPwoNBldr9yplSOBbl8hVcN2MJknAMG1abeEsbcSSBBihBeuTP46YkO6L0Ow==",
      "path": "system.collections.nongeneric/4.3.0",
      "hashPath": "system.collections.nongeneric.4.3.0.nupkg.sha512"
    },
    "System.ComponentModel.Annotations/4.7.0": {
      "type": "package",
      "serviceable": true,
      "sha512": "sha512-0YFqjhp/mYkDGpU0Ye1GjE53HMp9UVfGN7seGpAMttAC0C40v5gw598jCgpbBLMmCo0E5YRLBv5Z2doypO49ZQ==",
      "path": "system.componentmodel.annotations/4.7.0",
      "hashPath": "system.componentmodel.annotations.4.7.0.nupkg.sha512"
    },
    "System.Diagnostics.Debug/4.3.0": {
      "type": "package",
      "serviceable": true,
      "sha512": "sha512-nFpvB/zKeHyOk3rcKw3MNQKahGKqUspmkbpFjh1IXpqwPjO+0GsHWPOv+cwkISg29JbytcRTvjzF9NbwC3ZfZw==",
      "path": "system.diagnostics.debug/4.3.0",
      "hashPath": "system.diagnostics.debug.4.3.0.nupkg.sha512"
    },
    "System.Diagnostics.EventLog/4.7.0": {
      "type": "package",
      "serviceable": true,
      "sha512": "sha512-iDoKGQcRwX0qwY+eAEkaJGae0d/lHlxtslO+t8pJWAUxlvY3tqLtVOPnW2UU4cFjP0Y/L1QBqhkZfSyGqVMR2w==",
      "path": "system.diagnostics.eventlog/4.7.0",
      "hashPath": "system.diagnostics.eventlog.4.7.0.nupkg.sha512"
    },
    "System.Globalization/4.3.0": {
      "type": "package",
      "serviceable": true,
      "sha512": "sha512-2hwGLW1Igc89O9oMJdF0Gk2eGubqRDupw4Xh/WhS87cqJ0l9Y+rGiUiML4wzRm2e9LLxvkQT8tsIyhR9KBpKaA==",
      "path": "system.globalization/4.3.0",
      "hashPath": "system.globalization.4.3.0.nupkg.sha512"
    },
    "System.IO/4.3.0": {
      "type": "package",
      "serviceable": true,
      "sha512": "sha512-XuZ61nRhNKOqTi5AEqSzKmrigprBhJOp2mWbAgFKFK45m03jLWLC3Sf/pHb0kIl98Zg7BqCfX95FaC49dvzKsA==",
      "path": "system.io/4.3.0",
      "hashPath": "system.io.4.3.0.nupkg.sha512"
    },
    "System.Memory/4.5.2": {
      "type": "package",
      "serviceable": true,
      "sha512": "sha512-fvq1GNmUFwbKv+aLVYYdgu/+gc8Nu9oFujOxIjPrsf+meis9JBzTPDL6aP/eeGOz9yPj6rRLUbOjKMpsMEWpNg==",
      "path": "system.memory/4.5.2",
      "hashPath": "system.memory.4.5.2.nupkg.sha512"
    },
    "System.Reflection/4.3.0": {
      "type": "package",
      "serviceable": true,
      "sha512": "sha512-+6eNFfOqzyfAVhfAHSB7L6WVByvEhgcsW+53KJq+U+RGoV0HnIeDVulZQwYL2qymna8aKYKFrW6RS2lO/P72DQ==",
      "path": "system.reflection/4.3.0",
      "hashPath": "system.reflection.4.3.0.nupkg.sha512"
    },
    "System.Reflection.Primitives/4.3.0": {
      "type": "package",
      "serviceable": true,
      "sha512": "sha512-wsfpsKMX8RPP55BRsUi94bZTe04sNqN27urXTwflGssKPMTgH7Qp7ca+Se2ismx95u5bTlImVnaIq8qcAfiEng==",
      "path": "system.reflection.primitives/4.3.0",
      "hashPath": "system.reflection.primitives.4.3.0.nupkg.sha512"
    },
    "System.Resources.ResourceManager/4.3.0": {
      "type": "package",
      "serviceable": true,
      "sha512": "sha512-OvZCLODvFl6xp6/j7ygiVkoQuHA08FU4BN+veswPU9dBTZpCTQYb4psFyc1EEgoffIHLtIY0kgHUzujc15KLjQ==",
      "path": "system.resources.resourcemanager/4.3.0",
      "hashPath": "system.resources.resourcemanager.4.3.0.nupkg.sha512"
    },
    "System.Runtime/4.3.0": {
      "type": "package",
      "serviceable": true,
      "sha512": "sha512-1SdMyU8/RvcnGEdwdaJXzfcQLOj+x/IjtDFskmDOg3Jy97R20OKj+otmtwycHl1pNzt6Z8Qty3GRz6zZ7X23Nw==",
      "path": "system.runtime/4.3.0",
      "hashPath": "system.runtime.4.3.0.nupkg.sha512"
    },
    "System.Runtime.CompilerServices.Unsafe/4.7.0": {
      "type": "package",
      "serviceable": true,
      "sha512": "sha512-IpU1lcHz8/09yDr9N+Juc7SCgNUz+RohkCQI+KsWKR67XxpFr8Z6c8t1iENCXZuRuNCc4HBwme/MDHNVCwyAKg==",
      "path": "system.runtime.compilerservices.unsafe/4.7.0",
      "hashPath": "system.runtime.compilerservices.unsafe.4.7.0.nupkg.sha512"
    },
    "System.Runtime.Extensions/4.3.0": {
      "type": "package",
      "serviceable": true,
      "sha512": "sha512-OFusZKY9As8p8D0WmiVeptKWO06cYeoazXNAdwOtmpQdap4qL2f4AbOFEF9KRd3AjnZPmm3SSfnyphDxuv1gcQ==",
      "path": "system.runtime.extensions/4.3.0",
      "hashPath": "system.runtime.extensions.4.3.0.nupkg.sha512"
    },
    "System.Security.AccessControl/4.7.0": {
      "type": "package",
      "serviceable": true,
      "sha512": "sha512-JECvTt5aFF3WT3gHpfofL2MNNP6v84sxtXxpqhLBCcDRzqsPBmHhQ6shv4DwwN2tRlzsUxtb3G9M3763rbXKDg==",
      "path": "system.security.accesscontrol/4.7.0",
      "hashPath": "system.security.accesscontrol.4.7.0.nupkg.sha512"
    },
    "System.Security.Principal.Windows/4.7.0": {
      "type": "package",
      "serviceable": true,
      "sha512": "sha512-ojD0PX0XhneCsUbAZVKdb7h/70vyYMDYs85lwEI+LngEONe/17A0cFaRFqZU+sOEidcVswYWikYOQ9PPfjlbtQ==",
      "path": "system.security.principal.windows/4.7.0",
      "hashPath": "system.security.principal.windows.4.7.0.nupkg.sha512"
    },
    "System.ServiceProcess.ServiceController/4.5.0": {
      "type": "package",
      "serviceable": true,
      "sha512": "sha512-8DGUtcNHf9TlvSVemKMFiqcOWJ4OdGBgvpcGL/cYossGf5ApMQdPUQS8vXHTBmlbYAcG+JXsjMFGAHp2oJrr+Q==",
      "path": "system.serviceprocess.servicecontroller/4.5.0",
      "hashPath": "system.serviceprocess.servicecontroller.4.5.0.nupkg.sha512"
    },
    "System.Text.Encoding/4.3.0": {
      "type": "package",
      "serviceable": true,
      "sha512": "sha512-LADLEV6hGk5MexPzglV+kSrn86JY5/ZFj9wLafNoU1McES0k1jkPkmDKDUhXVW6pk3O4ba3XXDaWJL9bAVvs8w==",
      "path": "system.text.encoding/4.3.0",
      "hashPath": "system.text.encoding.4.3.0.nupkg.sha512"
    },
    "System.Text.Encodings.Web/4.7.0": {
      "type": "package",
      "serviceable": true,
      "sha512": "sha512-IJanJWPQvya2sbGStt3Fkdy4IaomUBSadAfYWeJDQw0zclMk9ixSvMeei6cSmTTQ6ZkGIIAbhHZVCoLR7GgX7Q==",
      "path": "system.text.encodings.web/4.7.0",
      "hashPath": "system.text.encodings.web.4.7.0.nupkg.sha512"
    },
    "System.Text.Json/4.7.0": {
      "type": "package",
      "serviceable": true,
      "sha512": "sha512-IPq/x/d5nAcnD3vIyM3AbPOaTgcqrh0AqPSx7U53UFu3M6k1TH1u/eXc9/h4jm/3mpP1WRUpevlPY4PACd7AWw==",
      "path": "system.text.json/4.7.0",
      "hashPath": "system.text.json.4.7.0.nupkg.sha512"
    },
    "System.Threading/4.3.0": {
      "type": "package",
      "serviceable": true,
      "sha512": "sha512-vi7HgG0yie/3xDGn3sd4z+welPhz0BIcodW9O1opEis1f5olF/SM3pvf0dsM+DTGG7gRcXrf6SjFRJ576whheQ==",
      "path": "system.threading/4.3.0",
      "hashPath": "system.threading.4.3.0.nupkg.sha512"
    },
    "System.Threading.Tasks/4.3.0": {
      "type": "package",
      "serviceable": true,
      "sha512": "sha512-x8RwpCDc6CORYfzZMk3jwow0SxU1F2l/lFcWwgVhVvuAY1ZI7pamCH4HDM9313KjYlyHm6g9g0LuvZ1NMStljw==",
      "path": "system.threading.tasks/4.3.0",
      "hashPath": "system.threading.tasks.4.3.0.nupkg.sha512"
    },
    "System.Threading.Tasks.Extensions/4.5.2": {
      "type": "package",
      "serviceable": true,
      "sha512": "sha512-BG/TNxDFv0svAzx8OiMXDlsHfGw623BZ8tCXw4YLhDFDvDhNUEV58jKYMGRnkbJNm7c3JNNJDiN7JBMzxRBR2w==",
      "path": "system.threading.tasks.extensions/4.5.2",
      "hashPath": "system.threading.tasks.extensions.4.5.2.nupkg.sha512"
    },
    "Topshelf/4.2.1": {
      "type": "package",
      "serviceable": true,
      "sha512": "sha512-B3oYQ1g9TIswvUI8Doh9voMqkE5yF5bYaQL0cw2ctkWap3EvyFJ+cpIQUwDlHARD1tXgK2X1rcJG7om//O7PMw==",
      "path": "topshelf/4.2.1",
      "hashPath": "topshelf.4.2.1.nupkg.sha512"
    },
    "TopShelf.ServiceInstaller/4.2.1": {
      "type": "package",
      "serviceable": true,
      "sha512": "sha512-KuIZo/wTgn/Cn99Itdl5GCNs7iyCnQxwgZh6icKoZQZxwgnmuu6B1yCH87t+B4trhz/oR8RmR1Bc1Bd9DM8vtQ==",
      "path": "topshelf.serviceinstaller/4.2.1",
      "hashPath": "topshelf.serviceinstaller.4.2.1.nupkg.sha512"
    }
  }
}